大二/计算机组成原理/实验1-4/Experiements/experiement_2.4/experiement_2.4.sim/sim_1/behav/xsim/simulate.log
Time resolution is 1 ps
Time =                    0, clk = 0, sw = 0, data = 0000
Time =                 1000, clk = 1, sw = 0, data = 0000
Time =                 1000, clk = 0, sw = 0, data = 0000
Time =                 2000, clk = 1, sw = 0, data = 0000
Time =                 2000, clk = 0, sw = 0, data = 0000
Time =                 3000, clk = 1, sw = 0, data = 0000
Time =                 4000, clk = 0, sw = 0, data = 0000
Time =                 4000, clk = 1, sw = 0, data = 0000
Time =                 5000, clk = 0, sw = 0, data = 0000
Time =                 5000, clk = 1, sw = 0, data = 0000
Time =                 6000, clk = 0, sw = 1, data = 0000
Time =                 6000, clk = 1, sw = 1, data = 0000
Time =                 7000, clk = 0, sw = 1, data = 0000
Time =                 8000, clk = 1, sw = 1, data = 0000
Time =                 8000, clk = 0, sw = 1, data = 0000
Time =                 9000, clk = 1, sw = 1, data = 0000
Time =                 9000, clk = 0, sw = 1, data = 0000
Time =                10000, clk = 1, sw = 1, data = 0000
Time =                11000, clk = 0, sw = 1, data = 0000
Time =                11000, clk = 1, sw = 1, data = 0000
Time =                12000, clk = 0, sw = 1, data = 0000
Time =                12000, clk = 1, sw = 1, data = 1000
Time =                13000, clk = 0, sw = 1, data = 1000
Time =                14000, clk = 1, sw = 1, data = 1000
Time =                14000, clk = 0, sw = 1, data = 1000
Time =                15000, clk = 1, sw = 1, data = 1000
Time =                15000, clk = 0, sw = 1, data = 1000
Time =                16000, clk = 1, sw = 1, data = 1000
Time =                16000, clk = 0, sw = 1, data = 1000
Time =                17000, clk = 1, sw = 1, data = 1000
Time =                18000, clk = 0, sw = 1, data = 1000
Time =                18000, clk = 1, sw = 1, data = 1000
Time =                19000, clk = 0, sw = 1, data = 1000
Time =                19000, clk = 1, sw = 1, data = 1000
Time =                20000, clk = 0, sw = 1, data = 1000
Time =                21000, clk = 1, sw = 1, data = 1000
Time =                21000, clk = 0, sw = 1, data = 1000
Time =                22000, clk = 1, sw = 1, data = 1000
Time =                22000, clk = 0, sw = 1, data = 1000
Time =                23000, clk = 1, sw = 1, data = 1000
Time =                23000, clk = 0, sw = 1, data = 1000
Time =                24000, clk = 1, sw = 1, data = 1000
Time =                25000, clk = 0, sw = 1, data = 1000
Time =                25000, clk = 1, sw = 1, data = 1000
Time =                26000, clk = 0, sw = 1, data = 1000
Time =                26000, clk = 1, sw = 1, data = 1000
Time =                27000, clk = 0, sw = 1, data = 1000
Time =                28000, clk = 1, sw = 1, data = 1000
Time =                28000, clk = 0, sw = 1, data = 1000
Time =                29000, clk = 1, sw = 1, data = 1000
Time =                29000, clk = 0, sw = 1, data = 1000
Time =                30000, clk = 1, sw = 1, data = 1000
Time =                31000, clk = 0, sw = 1, data = 1000
Time =                31000, clk = 1, sw = 1, data = 1000
Time =                32000, clk = 0, sw = 1, data = 1000
Time =                32000, clk = 1, sw = 1, data = 1000
Time =                33000, clk = 0, sw = 1, data = 1000
Time =                33000, clk = 1, sw = 1, data = 1000
Time =                34000, clk = 0, sw = 1, data = 1000
Time =                35000, clk = 1, sw = 1, data = 1000
Time =                35000, clk = 0, sw = 1, data = 1000
Time =                36000, clk = 1, sw = 1, data = 1000
Time =                36000, clk = 0, sw = 1, data = 1000
Time =                37000, clk = 1, sw = 1, data = 1000
Time =                38000, clk = 0, sw = 1, data = 1000
Time =                38000, clk = 1, sw = 1, data = 0100
Time =                39000, clk = 0, sw = 1, data = 0100
Time =                39000, clk = 1, sw = 1, data = 0100
Time =                40000, clk = 0, sw = 1, data = 0100
Time =                41000, clk = 1, sw = 1, data = 0100
Time =                41000, clk = 0, sw = 1, data = 0100
Time =                42000, clk = 1, sw = 1, data = 0100
Time =                42000, clk = 0, sw = 1, data = 0100
Time =                43000, clk = 1, sw = 1, data = 0100
Time =                43000, clk = 0, sw = 1, data = 0100
Time =                44000, clk = 1, sw = 1, data = 0100
Time =                45000, clk = 0, sw = 1, data = 0100
Time =                45000, clk = 1, sw = 1, data = 0100
Time =                46000, clk = 0, sw = 1, data = 0100
Time =                46000, clk = 1, sw = 1, data = 0100
Time =                47000, clk = 0, sw = 1, data = 0100
Time =                48000, clk = 1, sw = 1, data = 0100
Time =                48000, clk = 0, sw = 1, data = 0100
Time =                49000, clk = 1, sw = 1, data = 0100
Time =                49000, clk = 0, sw = 1, data = 0100
Time =                50000, clk = 1, sw = 1, data = 0100
Time =                50000, clk = 0, sw = 1, data = 0100
Time =                51000, clk = 1, sw = 1, data = 0100
Time =                52000, clk = 0, sw = 1, data = 0100
Time =                52000, clk = 1, sw = 1, data = 0100
Time =                53000, clk = 0, sw = 1, data = 0100
Time =                53000, clk = 1, sw = 1, data = 0100
Time =                54000, clk = 0, sw = 1, data = 0100
Time =                55000, clk = 1, sw = 1, data = 0100
Time =                55000, clk = 0, sw = 1, data = 0100
Time =                56000, clk = 1, sw = 1, data = 0100
Time =                56000, clk = 0, sw = 1, data = 0100
Time =                57000, clk = 1, sw = 1, data = 0100
Time =                58000, clk = 0, sw = 1, data = 0100
Time =                58000, clk = 1, sw = 1, data = 0100
Time =                59000, clk = 0, sw = 1, data = 0100
Time =                59000, clk = 1, sw = 1, data = 0100
Time =                60000, clk = 0, sw = 1, data = 0100
Time =                60000, clk = 1, sw = 1, data = 0100
Time =                61000, clk = 0, sw = 1, data = 0100
Time =                62000, clk = 1, sw = 1, data = 0100
Time =                62000, clk = 0, sw = 1, data = 0100
Time =                63000, clk = 1, sw = 1, data = 0100
Time =                63000, clk = 0, sw = 1, data = 0100
Time =                64000, clk = 1, sw = 1, data = 0010
Time =                65000, clk = 0, sw = 1, data = 0010
Time =                65000, clk = 1, sw = 1, data = 0010
Time =                66000, clk = 0, sw = 1, data = 0010
Time =                66000, clk = 1, sw = 1, data = 0010
Time =                67000, clk = 0, sw = 1, data = 0010
Time =                68000, clk = 1, sw = 1, data = 0010
Time =                68000, clk = 0, sw = 1, data = 0010
Time =                69000, clk = 1, sw = 1, data = 0010
Time =                69000, clk = 0, sw = 1, data = 0010
Time =                70000, clk = 1, sw = 1, data = 0010
Time =                70000, clk = 0, sw = 1, data = 0010
Time =                71000, clk = 1, sw = 1, data = 0010
Time =                72000, clk = 0, sw = 1, data = 0010
Time =                72000, clk = 1, sw = 1, data = 0010
Time =                73000, clk = 0, sw = 1, data = 0010
Time =                73000, clk = 1, sw = 1, data = 0010
Time =                74000, clk = 0, sw = 1, data = 0010
Time =                75000, clk = 1, sw = 1, data = 0010
Time =                75000, clk = 0, sw = 1, data = 0010
Time =                76000, clk = 1, sw = 1, data = 0010
Time =                76000, clk = 0, sw = 1, data = 0010
Time =                77000, clk = 1, sw = 1, data = 0010
Time =                77000, clk = 0, sw = 1, data = 0010
Time =                78000, clk = 1, sw = 1, data = 0010
Time =                79000, clk = 0, sw = 1, data = 0010
Time =                79000, clk = 1, sw = 1, data = 0010
Time =                80000, clk = 0, sw = 1, data = 0010
Time =                80000, clk = 1, sw = 1, data = 0010
Time =                81000, clk = 0, sw = 1, data = 0010
Time =                82000, clk = 1, sw = 1, data = 0010
Time =                82000, clk = 0, sw = 1, data = 0010
Time =                83000, clk = 1, sw = 1, data = 0010
Time =                83000, clk = 0, sw = 1, data = 0010
Time =                84000, clk = 1, sw = 1, data = 0010
Time =                85000, clk = 0, sw = 1, data = 0010
Time =                85000, clk = 1, sw = 1, data = 0010
Time =                86000, clk = 0, sw = 1, data = 0010
Time =                86000, clk = 1, sw = 1, data = 0010
Time =                87000, clk = 0, sw = 1, data = 0010
Time =                87000, clk = 1, sw = 1, data = 0010
Time =                88000, clk = 0, sw = 1, data = 0010
Time =                89000, clk = 1, sw = 1, data = 0010
Time =                89000, clk = 0, sw = 1, data = 0010
Time =                90000, clk = 1, sw = 1, data = 0001
Time =                90000, clk = 0, sw = 1, data = 0001
Time =                91000, clk = 1, sw = 1, data = 0001
Time =                92000, clk = 0, sw = 1, data = 0001
Time =                92000, clk = 1, sw = 1, data = 0001
Time =                93000, clk = 0, sw = 1, data = 0001
Time =                93000, clk = 1, sw = 1, data = 0001
Time =                94000, clk = 0, sw = 1, data = 0001
Time =                95000, clk = 1, sw = 1, data = 0001
Time =                95000, clk = 0, sw = 1, data = 0001
Time =                96000, clk = 1, sw = 1, data = 0001
Time =                96000, clk = 0, sw = 1, data = 0001
Time =                97000, clk = 1, sw = 1, data = 0001
Time =                97000, clk = 0, sw = 1, data = 0001
Time =                98000, clk = 1, sw = 1, data = 0001
Time =                99000, clk = 0, sw = 1, data = 0001
Time =                99000, clk = 1, sw = 1, data = 0001
Time =               100000, clk = 0, sw = 1, data = 0001
Time =               100000, clk = 1, sw = 1, data = 0001
Time =               101000, clk = 0, sw = 1, data = 0001
Time =               102000, clk = 1, sw = 1, data = 0001
Time =               102000, clk = 0, sw = 1, data = 0001
Time =               103000, clk = 1, sw = 1, data = 0001
Time =               103000, clk = 0, sw = 1, data = 0001
Time =               104000, clk = 1, sw = 1, data = 0001
Time =               104000, clk = 0, sw = 1, data = 0001
Time =               105000, clk = 1, sw = 1, data = 0001
Time =               106000, clk = 0, sw = 1, data = 0001
Time =               106000, clk = 1, sw = 1, data = 0001
Time =               107000, clk = 0, sw = 1, data = 0001
Time =               107000, clk = 1, sw = 1, data = 0001
Time =               108000, clk = 0, sw = 1, data = 0001
Time =               109000, clk = 1, sw = 1, data = 0001
Time =               109000, clk = 0, sw = 1, data = 0001
Time =               110000, clk = 1, sw = 1, data = 0001
Time =               110000, clk = 0, sw = 1, data = 0001
Time =               111000, clk = 1, sw = 1, data = 0001
Time =               112000, clk = 0, sw = 1, data = 0001
Time =               112000, clk = 1, sw = 1, data = 0001
Time =               113000, clk = 0, sw = 1, data = 0001
Time =               113000, clk = 1, sw = 1, data = 0001
Time =               114000, clk = 0, sw = 1, data = 0001
Time =               114000, clk = 1, sw = 1, data = 0001
Time =               115000, clk = 0, sw = 1, data = 0001
Time =               116000, clk = 1, sw = 1, data = 1000
Time =               116000, clk = 0, sw = 1, data = 1000
Time =               117000, clk = 1, sw = 1, data = 1000
Time =               117000, clk = 0, sw = 1, data = 1000
Time =               118000, clk = 1, sw = 1, data = 1000
Time =               119000, clk = 0, sw = 1, data = 1000
Time =               119000, clk = 1, sw = 1, data = 1000
Time =               120000, clk = 0, sw = 1, data = 1000
Time =               120000, clk = 1, sw = 1, data = 1000
Time =               121000, clk = 0, sw = 1, data = 1000
Time =               122000, clk = 1, sw = 1, data = 1000
Time =               122000, clk = 0, sw = 1, data = 1000
Time =               123000, clk = 1, sw = 1, data = 1000
Time =               123000, clk = 0, sw = 1, data = 1000
Time =               124000, clk = 1, sw = 1, data = 1000
Time =               124000, clk = 0, sw = 1, data = 1000
Time =               125000, clk = 1, sw = 1, data = 1000
Time =               126000, clk = 0, sw = 1, data = 1000
Time =               126000, clk = 1, sw = 1, data = 1000
Time =               127000, clk = 0, sw = 1, data = 1000
Time =               127000, clk = 1, sw = 1, data = 1000
Time =               128000, clk = 0, sw = 1, data = 1000
Time =               129000, clk = 1, sw = 1, data = 1000
Time =               129000, clk = 0, sw = 1, data = 1000
Time =               130000, clk = 1, sw = 1, data = 1000
Time =               130000, clk = 0, sw = 1, data = 1000
Time =               131000, clk = 1, sw = 1, data = 1000
Time =               131000, clk = 0, sw = 1, data = 1000
Time =               132000, clk = 1, sw = 1, data = 1000
Time =               133000, clk = 0, sw = 1, data = 1000
Time =               133000, clk = 1, sw = 1, data = 1000
Time =               134000, clk = 0, sw = 1, data = 1000
Time =               134000, clk = 1, sw = 1, data = 1000
Time =               135000, clk = 0, sw = 1, data = 1000
Time =               136000, clk = 1, sw = 1, data = 1000
Time =               136000, clk = 0, sw = 1, data = 1000
Time =               137000, clk = 1, sw = 1, data = 1000
Time =               137000, clk = 0, sw = 1, data = 1000
Time =               138000, clk = 1, sw = 1, data = 1000
Time =               139000, clk = 0, sw = 1, data = 1000
Time =               139000, clk = 1, sw = 1, data = 1000
Time =               140000, clk = 0, sw = 1, data = 1000
Time =               140000, clk = 1, sw = 1, data = 1000
Time =               141000, clk = 0, sw = 1, data = 1000
Time =               141000, clk = 1, sw = 1, data = 0100
Time =               142000, clk = 0, sw = 1, data = 0100
Time =               143000, clk = 1, sw = 1, data = 0100
Time =               143000, clk = 0, sw = 1, data = 0100
Time =               144000, clk = 1, sw = 1, data = 0100
Time =               144000, clk = 0, sw = 1, data = 0100
Time =               145000, clk = 1, sw = 1, data = 0100
Time =               146000, clk = 0, sw = 1, data = 0100
Time =               146000, clk = 1, sw = 1, data = 0100
Time =               147000, clk = 0, sw = 1, data = 0100
Time =               147000, clk = 1, sw = 1, data = 0100
Time =               148000, clk = 0, sw = 1, data = 0100
Time =               149000, clk = 1, sw = 1, data = 0100
Time =               149000, clk = 0, sw = 1, data = 0100
Time =               150000, clk = 1, sw = 1, data = 0100
Time =               150000, clk = 0, sw = 1, data = 0100
Time =               151000, clk = 1, sw = 1, data = 0100
Time =               151000, clk = 0, sw = 1, data = 0100
Time =               152000, clk = 1, sw = 1, data = 0100
Time =               153000, clk = 0, sw = 1, data = 0100
Time =               153000, clk = 1, sw = 1, data = 0100
Time =               154000, clk = 0, sw = 1, data = 0100
Time =               154000, clk = 1, sw = 1, data = 0100
Time =               155000, clk = 0, sw = 1, data = 0100
Time =               156000, clk = 1, sw = 1, data = 0100
Time =               156000, clk = 0, sw = 1, data = 0100
Time =               157000, clk = 1, sw = 1, data = 0100
Time =               157000, clk = 0, sw = 1, data = 0100
Time =               158000, clk = 1, sw = 1, data = 0100
Time =               158000, clk = 0, sw = 1, data = 0100
Time =               159000, clk = 1, sw = 1, data = 0100
Time =               160000, clk = 0, sw = 1, data = 0100
Time =               160000, clk = 1, sw = 1, data = 0100
Time =               161000, clk = 0, sw = 1, data = 0100
Time =               161000, clk = 1, sw = 1, data = 0100
Time =               162000, clk = 0, sw = 1, data = 0100
Time =               163000, clk = 1, sw = 1, data = 0100
Time =               163000, clk = 0, sw = 1, data = 0100
Time =               164000, clk = 1, sw = 1, data = 0100
Time =               164000, clk = 0, sw = 1, data = 0100
Time =               165000, clk = 1, sw = 1, data = 0100
Time =               166000, clk = 0, sw = 1, data = 0100
Time =               166000, clk = 1, sw = 1, data = 0100
Time =               167000, clk = 0, sw = 1, data = 0100
Time =               167000, clk = 1, sw = 1, data = 0010
Time =               168000, clk = 0, sw = 1, data = 0010
Time =               168000, clk = 1, sw = 1, data = 0010
Time =               169000, clk = 0, sw = 1, data = 0010
Time =               170000, clk = 1, sw = 1, data = 0010
Time =               170000, clk = 0, sw = 1, data = 0010
Time =               171000, clk = 1, sw = 1, data = 0010
Time =               171000, clk = 0, sw = 1, data = 0010
Time =               172000, clk = 1, sw = 1, data = 0010
Time =               173000, clk = 0, sw = 1, data = 0010
Time =               173000, clk = 1, sw = 1, data = 0010
Time =               174000, clk = 0, sw = 1, data = 0010
Time =               174000, clk = 1, sw = 1, data = 0010
Time =               175000, clk = 0, sw = 1, data = 0010
Time =               176000, clk = 1, sw = 1, data = 0010
Time =               176000, clk = 0, sw = 1, data = 0010
Time =               177000, clk = 1, sw = 1, data = 0010
Time =               177000, clk = 0, sw = 1, data = 0010
Time =               178000, clk = 1, sw = 1, data = 0010
Time =               178000, clk = 0, sw = 1, data = 0010
Time =               179000, clk = 1, sw = 1, data = 0010
Time =               180000, clk = 0, sw = 1, data = 0010
Time =               180000, clk = 1, sw = 1, data = 0010
Time =               181000, clk = 0, sw = 1, data = 0010
Time =               181000, clk = 1, sw = 1, data = 0010
Time =               182000, clk = 0, sw = 1, data = 0010
Time =               183000, clk = 1, sw = 1, data = 0010
Time =               183000, clk = 0, sw = 1, data = 0010
Time =               184000, clk = 1, sw = 1, data = 0010
Time =               184000, clk = 0, sw = 1, data = 0010
Time =               185000, clk = 1, sw = 1, data = 0010
Time =               185000, clk = 0, sw = 1, data = 0010
Time =               186000, clk = 1, sw = 1, data = 0010
Time =               187000, clk = 0, sw = 1, data = 0010
Time =               187000, clk = 1, sw = 1, data = 0010
Time =               188000, clk = 0, sw = 1, data = 0010
Time =               188000, clk = 1, sw = 1, data = 0010
Time =               189000, clk = 0, sw = 1, data = 0010
Time =               190000, clk = 1, sw = 1, data = 0010
Time =               190000, clk = 0, sw = 1, data = 0010
Time =               191000, clk = 1, sw = 1, data = 0010
Time =               191000, clk = 0, sw = 1, data = 0010
Time =               192000, clk = 1, sw = 1, data = 0010
Time =               193000, clk = 0, sw = 1, data = 0010
Time =               193000, clk = 1, sw = 1, data = 0001
Time =               194000, clk = 0, sw = 1, data = 0001
Time =               194000, clk = 1, sw = 1, data = 0001
Time =               195000, clk = 0, sw = 1, data = 0001
Time =               195000, clk = 1, sw = 1, data = 0001
Time =               196000, clk = 0, sw = 1, data = 0001
Time =               197000, clk = 1, sw = 1, data = 0001
Time =               197000, clk = 0, sw = 1, data = 0001
Time =               198000, clk = 1, sw = 1, data = 0001
Time =               198000, clk = 0, sw = 1, data = 0001
Time =               199000, clk = 1, sw = 1, data = 0001
Time =               200000, clk = 0, sw = 1, data = 0001
Time =               200000, clk = 1, sw = 1, data = 0001
Time =               201000, clk = 0, sw = 1, data = 0001
Time =               201000, clk = 1, sw = 1, data = 0001
Time =               202000, clk = 0, sw = 1, data = 0001
Time =               203000, clk = 1, sw = 1, data = 0001
Time =               203000, clk = 0, sw = 1, data = 0001
Time =               204000, clk = 1, sw = 1, data = 0001
Time =               204000, clk = 0, sw = 1, data = 0001
Time =               205000, clk = 1, sw = 1, data = 0001
Time =               205000, clk = 0, sw = 1, data = 0001
Time =               206000, clk = 1, sw = 1, data = 0001
Time =               207000, clk = 0, sw = 1, data = 0001
Time =               207000, clk = 1, sw = 1, data = 0001
Time =               208000, clk = 0, sw = 1, data = 0001
Time =               208000, clk = 1, sw = 1, data = 0001
Time =               209000, clk = 0, sw = 1, data = 0001
Time =               210000, clk = 1, sw = 1, data = 0001
Time =               210000, clk = 0, sw = 1, data = 0001
Time =               211000, clk = 1, sw = 1, data = 0001
Time =               211000, clk = 0, sw = 1, data = 0001
Time =               212000, clk = 1, sw = 1, data = 0001
Time =               212000, clk = 0, sw = 1, data = 0001
Time =               213000, clk = 1, sw = 1, data = 0001
Time =               214000, clk = 0, sw = 1, data = 0001
Time =               214000, clk = 1, sw = 1, data = 0001
Time =               215000, clk = 0, sw = 1, data = 0001
Time =               215000, clk = 1, sw = 1, data = 0001
Time =               216000, clk = 0, sw = 1, data = 0001
Time =               217000, clk = 1, sw = 1, data = 0001
Time =               217000, clk = 0, sw = 1, data = 0001
Time =               218000, clk = 1, sw = 1, data = 0001
Time =               218000, clk = 0, sw = 1, data = 0001
Time =               219000, clk = 1, sw = 1, data = 1000
Time =               220000, clk = 0, sw = 1, data = 1000
Time =               220000, clk = 1, sw = 1, data = 1000
Time =               221000, clk = 0, sw = 1, data = 1000
Time =               221000, clk = 1, sw = 1, data = 1000
Time =               222000, clk = 0, sw = 1, data = 1000
Time =               222000, clk = 1, sw = 1, data = 1000
Time =               223000, clk = 0, sw = 1, data = 1000
Time =               224000, clk = 1, sw = 1, data = 1000
Time =               224000, clk = 0, sw = 1, data = 1000
Time =               225000, clk = 1, sw = 1, data = 1000
Time =               225000, clk = 0, sw = 1, data = 1000
Time =               226000, clk = 1, sw = 1, data = 1000
Time =               227000, clk = 0, sw = 1, data = 1000
Time =               227000, clk = 1, sw = 1, data = 1000
Time =               228000, clk = 0, sw = 1, data = 1000
Time =               228000, clk = 1, sw = 1, data = 1000
Time =               229000, clk = 0, sw = 1, data = 1000
Time =               230000, clk = 1, sw = 1, data = 1000
Time =               230000, clk = 0, sw = 1, data = 1000
Time =               231000, clk = 1, sw = 1, data = 1000
Time =               231000, clk = 0, sw = 1, data = 1000
Time =               232000, clk = 1, sw = 1, data = 1000
Time =               232000, clk = 0, sw = 1, data = 1000
Time =               233000, clk = 1, sw = 1, data = 1000
Time =               234000, clk = 0, sw = 1, data = 1000
Time =               234000, clk = 1, sw = 1, data = 1000
Time =               235000, clk = 0, sw = 1, data = 1000
Time =               235000, clk = 1, sw = 1, data = 1000
Time =               236000, clk = 0, sw = 1, data = 1000
Time =               237000, clk = 1, sw = 1, data = 1000
Time =               237000, clk = 0, sw = 1, data = 1000
Time =               238000, clk = 1, sw = 1, data = 1000
Time =               238000, clk = 0, sw = 1, data = 1000
Time =               239000, clk = 1, sw = 1, data = 1000
Time =               239000, clk = 0, sw = 1, data = 1000
Time =               240000, clk = 1, sw = 1, data = 1000
Time =               241000, clk = 0, sw = 1, data = 1000
Time =               241000, clk = 1, sw = 1, data = 1000
Time =               242000, clk = 0, sw = 1, data = 1000
Time =               242000, clk = 1, sw = 1, data = 1000
Time =               243000, clk = 0, sw = 1, data = 1000
Time =               244000, clk = 1, sw = 1, data = 1000
Time =               244000, clk = 0, sw = 1, data = 1000
Time =               245000, clk = 1, sw = 1, data = 0100
Time =               245000, clk = 0, sw = 1, data = 0100
Time =               246000, clk = 1, sw = 1, data = 0100
Time =               247000, clk = 0, sw = 1, data = 0100
Time =               247000, clk = 1, sw = 1, data = 0100
Time =               248000, clk = 0, sw = 1, data = 0100
Time =               248000, clk = 1, sw = 1, data = 0100
Time =               249000, clk = 0, sw = 1, data = 0100
Time =               249000, clk = 1, sw = 1, data = 0100
Time =               250000, clk = 0, sw = 1, data = 0100
Time =               251000, clk = 1, sw = 1, data = 0100
Time =               251000, clk = 0, sw = 1, data = 0100
Time =               252000, clk = 1, sw = 1, data = 0100
Time =               252000, clk = 0, sw = 1, data = 0100
Time =               253000, clk = 1, sw = 1, data = 0100
Time =               254000, clk = 0, sw = 1, data = 0100
Time =               254000, clk = 1, sw = 1, data = 0100
Time =               255000, clk = 0, sw = 1, data = 0100
Time =               255000, clk = 1, sw = 1, data = 0100
Time =               256000, clk = 0, sw = 1, data = 0100
Time =               257000, clk = 1, sw = 1, data = 0100
Time =               257000, clk = 0, sw = 1, data = 0100
Time =               258000, clk = 1, sw = 1, data = 0100
Time =               258000, clk = 0, sw = 1, data = 0100
Time =               259000, clk = 1, sw = 1, data = 0100
Time =               259000, clk = 0, sw = 1, data = 0100
Time =               260000, clk = 1, sw = 1, data = 0100
Time =               261000, clk = 0, sw = 1, data = 0100
Time =               261000, clk = 1, sw = 1, data = 0100
Time =               262000, clk = 0, sw = 1, data = 0100
Time =               262000, clk = 1, sw = 1, data = 0100
Time =               263000, clk = 0, sw = 1, data = 0100
Time =               264000, clk = 1, sw = 1, data = 0100
Time =               264000, clk = 0, sw = 1, data = 0100
Time =               265000, clk = 1, sw = 1, data = 0100
Time =               265000, clk = 0, sw = 1, data = 0100
Time =               266000, clk = 1, sw = 1, data = 0100
Time =               266000, clk = 0, sw = 1, data = 0100
Time =               267000, clk = 1, sw = 1, data = 0100
Time =               268000, clk = 0, sw = 1, data = 0100
Time =               268000, clk = 1, sw = 1, data = 0100
Time =               269000, clk = 0, sw = 1, data = 0100
Time =               269000, clk = 1, sw = 1, data = 0100
Time =               270000, clk = 0, sw = 1, data = 0100
Time =               271000, clk = 1, sw = 1, data = 0010
Time =               271000, clk = 0, sw = 1, data = 0010
Time =               272000, clk = 1, sw = 1, data = 0010
Time =               272000, clk = 0, sw = 1, data = 0010
Time =               273000, clk = 1, sw = 1, data = 0010
Time =               274000, clk = 0, sw = 1, data = 0010
Time =               274000, clk = 1, sw = 1, data = 0010
Time =               275000, clk = 0, sw = 1, data = 0010
Time =               275000, clk = 1, sw = 1, data = 0010
Time =               276000, clk = 0, sw = 1, data = 0010
Time =               276000, clk = 1, sw = 1, data = 0010
Time =               277000, clk = 0, sw = 1, data = 0010
Time =               278000, clk = 1, sw = 1, data = 0010
Time =               278000, clk = 0, sw = 1, data = 0010
Time =               279000, clk = 1, sw = 1, data = 0010
Time =               279000, clk = 0, sw = 1, data = 0010
Time =               280000, clk = 1, sw = 1, data = 0010
Time =               281000, clk = 0, sw = 1, data = 0010
Time =               281000, clk = 1, sw = 1, data = 0010
Time =               282000, clk = 0, sw = 1, data = 0010
Time =               282000, clk = 1, sw = 1, data = 0010
Time =               283000, clk = 0, sw = 1, data = 0010
Time =               284000, clk = 1, sw = 1, data = 0010
Time =               284000, clk = 0, sw = 1, data = 0010
Time =               285000, clk = 1, sw = 1, data = 0010
Time =               285000, clk = 0, sw = 1, data = 0010
Time =               286000, clk = 1, sw = 1, data = 0010
Time =               286000, clk = 0, sw = 1, data = 0010
Time =               287000, clk = 1, sw = 1, data = 0010
Time =               288000, clk = 0, sw = 1, data = 0010
Time =               288000, clk = 1, sw = 1, data = 0010
Time =               289000, clk = 0, sw = 1, data = 0010
Time =               289000, clk = 1, sw = 1, data = 0010
Time =               290000, clk = 0, sw = 1, data = 0010
Time =               291000, clk = 1, sw = 1, data = 0010
Time =               291000, clk = 0, sw = 1, data = 0010
Time =               292000, clk = 1, sw = 1, data = 0010
Time =               292000, clk = 0, sw = 1, data = 0010
Time =               293000, clk = 1, sw = 1, data = 0010
Time =               294000, clk = 0, sw = 1, data = 0010
Time =               294000, clk = 1, sw = 1, data = 0010
Time =               295000, clk = 0, sw = 1, data = 0010
Time =               295000, clk = 1, sw = 1, data = 0010
Time =               296000, clk = 0, sw = 1, data = 0010
Time =               296000, clk = 1, sw = 1, data = 0001
Time =               297000, clk = 0, sw = 1, data = 0001
Time =               298000, clk = 1, sw = 1, data = 0001
Time =               298000, clk = 0, sw = 1, data = 0001
Time =               299000, clk = 1, sw = 1, data = 0001
Time =               299000, clk = 0, sw = 1, data = 0001
Time =               300000, clk = 1, sw = 1, data = 0001
Time =               301000, clk = 0, sw = 1, data = 0001
Time =               301000, clk = 1, sw = 1, data = 0001
Time =               302000, clk = 0, sw = 1, data = 0001
Time =               302000, clk = 1, sw = 1, data = 0001
Time =               303000, clk = 0, sw = 1, data = 0001
Time =               303000, clk = 1, sw = 1, data = 0001
Time =               304000, clk = 0, sw = 1, data = 0001
Time =               305000, clk = 1, sw = 1, data = 0001
Time =               305000, clk = 0, sw = 1, data = 0001
Time =               306000, clk = 1, sw = 1, data = 0001
Time =               306000, clk = 0, sw = 1, data = 0001
Time =               307000, clk = 1, sw = 1, data = 0001
Time =               308000, clk = 0, sw = 1, data = 0001
Time =               308000, clk = 1, sw = 1, data = 0001
Time =               309000, clk = 0, sw = 1, data = 0001
Time =               309000, clk = 1, sw = 1, data = 0001
Time =               310000, clk = 0, sw = 1, data = 0001
Time =               311000, clk = 1, sw = 1, data = 0001
Time =               311000, clk = 0, sw = 1, data = 0001
Time =               312000, clk = 1, sw = 1, data = 0001
Time =               312000, clk = 0, sw = 1, data = 0001
Time =               313000, clk = 1, sw = 1, data = 0001
Time =               313000, clk = 0, sw = 1, data = 0001
Time =               314000, clk = 1, sw = 1, data = 0001
Time =               315000, clk = 0, sw = 1, data = 0001
Time =               315000, clk = 1, sw = 1, data = 0001
Time =               316000, clk = 0, sw = 1, data = 0001
Time =               316000, clk = 1, sw = 1, data = 0001
Time =               317000, clk = 0, sw = 1, data = 0001
Time =               318000, clk = 1, sw = 1, data = 0001
Time =               318000, clk = 0, sw = 1, data = 0001
Time =               319000, clk = 1, sw = 1, data = 0001
Time =               319000, clk = 0, sw = 1, data = 0001
Time =               320000, clk = 1, sw = 1, data = 0001
Time =               321000, clk = 0, sw = 1, data = 0001
Time =               321000, clk = 1, sw = 1, data = 0001
Time =               322000, clk = 0, sw = 1, data = 0001
Time =               322000, clk = 1, sw = 1, data = 1000
Time =               323000, clk = 0, sw = 1, data = 1000
Time =               323000, clk = 1, sw = 1, data = 1000
Time =               324000, clk = 0, sw = 1, data = 1000
Time =               325000, clk = 1, sw = 1, data = 1000
Time =               325000, clk = 0, sw = 1, data = 1000
Time =               326000, clk = 1, sw = 1, data = 1000
Time =               326000, clk = 0, sw = 1, data = 1000
Time =               327000, clk = 1, sw = 1, data = 1000
Time =               328000, clk = 0, sw = 1, data = 1000
Time =               328000, clk = 1, sw = 1, data = 1000
Time =               329000, clk = 0, sw = 1, data = 1000
Time =               329000, clk = 1, sw = 1, data = 1000
Time =               330000, clk = 0, sw = 1, data = 1000
Time =               330000, clk = 1, sw = 1, data = 1000
Time =               331000, clk = 0, sw = 1, data = 1000
Time =               332000, clk = 1, sw = 1, data = 1000
Time =               332000, clk = 0, sw = 1, data = 1000
Time =               333000, clk = 1, sw = 1, data = 1000
Time =               333000, clk = 0, sw = 1, data = 1000
Time =               334000, clk = 1, sw = 1, data = 1000
Time =               335000, clk = 0, sw = 1, data = 1000
Time =               335000, clk = 1, sw = 1, data = 1000
Time =               336000, clk = 0, sw = 1, data = 1000
Time =               336000, clk = 1, sw = 1, data = 1000
Time =               337000, clk = 0, sw = 1, data = 1000
Time =               338000, clk = 1, sw = 1, data = 1000
Time =               338000, clk = 0, sw = 1, data = 1000
Time =               339000, clk = 1, sw = 1, data = 1000
Time =               339000, clk = 0, sw = 1, data = 1000
Time =               340000, clk = 1, sw = 1, data = 1000
Time =               340000, clk = 0, sw = 1, data = 1000
Time =               341000, clk = 1, sw = 1, data = 1000
Time =               342000, clk = 0, sw = 1, data = 1000
Time =               342000, clk = 1, sw = 1, data = 1000
Time =               343000, clk = 0, sw = 1, data = 1000
Time =               343000, clk = 1, sw = 1, data = 1000
Time =               344000, clk = 0, sw = 1, data = 1000
Time =               345000, clk = 1, sw = 1, data = 1000
Time =               345000, clk = 0, sw = 1, data = 1000
Time =               346000, clk = 1, sw = 1, data = 1000
Time =               346000, clk = 0, sw = 1, data = 1000
Time =               347000, clk = 1, sw = 1, data = 1000
Time =               348000, clk = 0, sw = 1, data = 1000
Time =               348000, clk = 1, sw = 1, data = 0100
Time =               349000, clk = 0, sw = 1, data = 0100
Time =               349000, clk = 1, sw = 1, data = 0100
